72 -8 -64 -72 -8 -24 -72 -80 -32 488
-72 -24 96 -16 -32 -56 -32 608
64 -32 56 -24 48 -16 -24 -40 624
-8 -24 -40 -80 -24 -48 -48 -16 640
-72 32 -32 -80 -32 -32 -48 -16 -80 -72 416
-64 -64 -40 -16 -8 760
-48 40 -32 -72 -8 -72 672
72 -64 72 -72 -80 -40 -40 -16 472
160 -24 -40 -48 -40 -8 -64 -64 480
248 -56 -24 -48 -72 504
-72 -8 -8 -24 -8 -40 -24 -8 736
16 -16 104 -80 744
160 -24 792
232 -32 40 -48 -64 536
72 -48 80 -72 112 -8 -72 472
