8 -16 40 -24 -80 -40 736
8 -8 -8 -8 928
-16 -16 -8 24 -32 -40 808
-40 -8 -8 -8 16 -32 832
8 -96 -24 32 -8 24 -8 -40 8 -32 632
-8 8 -8 -8 32 -48 832
8 -16 24 -32 40 -48 776
104 -40 -48 -56 712
-8 -8 40 -24 -32 -40 -80 704
-24 -8 -8 -40 32 -40 792
-8 24 -32 -32 -40 816
